{
    "data": [
        {
            "label": "login",
            "style": "iostablet-image",
            "class": "background",
            "image": "./ios_Images/IMG_0284.PNG"
            }, {
            "label": "account detail",
            "style": "iostablet-image",
            "class": "background",
            "image": "./ios_Images/IMG_0296.PNG"
            }, {
            "label": "transfers",
            "style": "iostablet-image",
            "class": "background",
            "image": "./ios_Images/IMG_0289.PNG"
            }, {
            "label": "atm",
            "style": "iostablet-image",
            "class": "background",
            "image": "./ios_Images/IMG_0294.PNG"
            }
        ]
}